{
  "__type__": "cc.AnimationClip",
  "_name": "snake94.64",
  "_objFlags": 0,
  "_native": "",
  "_duration": 1,
  "sample": 30,
  "speed": 1,
  "wrapMode": 1,
  "curveData": {
    "props": {
      "position": [
        {
          "frame": 0,
          "value": [
            -20.3,
            132.6
          ],
          "motionPath": [
            [
              14.3,
              77.9,
              9.9,
              107.2,
              16.6,
              62.3
            ],
            [
              -23.6,
              22.6,
              -24.6,
              41.3,
              -22.6,
              3
            ],
            [
              18.8,
              -17.2,
              14.1,
              1.7,
              21.4,
              -27.6
            ],
            [
              12.4,
              -50.8,
              18.4,
              -37.1,
              8.4,
              -59.7
            ],
            [
              -22.7,
              -80.9,
              -19,
              -73.9,
              -27.2,
              -87.2
            ],
            [
              -26,
              -102.9,
              -31.4,
              -96.3,
              -13.7,
              -118.3
            ]
          ],
          "curve": "linear"
        },
        {
          "frame": 1,
          "value": [
            18.5,
            -128.6
          ],
          "motionPath": []
        }
      ]
    }
  },
  "events": [
    {
      "frame": 1,
      "func": "onAnimationComplete",
      "params": []
    }
  ]
}